<?xml version="1.0" encoding="utf-8"?>
<!-- Generator: Adobe Illustrator 17.0.0, SVG Export Plug-In . SVG Version: 6.00 Build 0)  -->
<!DOCTYPE svg PUBLIC "-//W3C//DTD SVG 1.1//EN" "http://www.w3.org/Graphics/SVG/1.1/DTD/svg11.dtd">
<svg version="1.1" id="Layer_1" xmlns="http://www.w3.org/2000/svg" xmlns:xlink="http://www.w3.org/1999/xlink" x="0px" y="0px"
	 width="160.345px" height="28.372px" viewBox="0 0 160.345 28.372" enable-background="new 0 0 160.345 28.372"
	 xml:space="preserve">
<g>
	<g transform="translate(0 -0.4)">
		<g transform="translate(0 4.786)">
			<path fill="#232856" d="M12.274-1.271C5.463-1.271,0,3.979,0,10.506s5.463,11.849,12.274,11.849c0.922,0,1.845-0.142,2.767-0.284
				l-4.115-5.392c-3.406-0.78-5.463-4.186-4.683-7.592c0.639-2.767,3.122-4.754,5.96-4.825l0,0c3.406,0,6.173,2.838,6.173,6.244l0,0
				c0,1.135-0.284,2.27-0.922,3.264l3.689,4.825c2.128-2.128,3.335-5.037,3.335-8.088C24.478,3.979,19.014-1.271,12.274-1.271
				L12.274-1.271z"/>
			<path fill="#C01718" d="M9.223,13.415h7.237l8.017,10.5h-7.237L9.223,13.415z"/>
			<path fill="#C01718" d="M52.502,16.75h6.173l5.463,7.237h-6.102L52.502,16.75z"/>
			<rect x="63.571" y="-0.562" fill="#232856" width="5.605" height="22.136"/>
			<path fill="#232856" d="M32.708-0.562v13.268c0,3.335,1.845,6.385,4.754,8.017c2.98,1.703,6.598,1.703,9.507,0
				c2.909-1.561,4.754-4.683,4.754-8.017V-0.562h-5.605v13.268c0,1.348-0.78,2.554-1.916,3.122c-1.206,0.709-2.696,0.709-3.902,0
				c-1.206-0.568-1.916-1.774-1.916-3.122V-0.562H32.708z"/>
			<path fill="#232856" d="M79.321-0.562v22.136h5.605V8.378l10.359,13.268h5.605V-0.562h-5.605v13.48L84.997-0.562H79.321z"/>
			<path fill="#232856" d="M113.306-0.562v22.136h12.345v-4.896h-6.74v-3.76h6.385V7.952h-6.385V4.334h6.74v-4.896H113.306z"/>
			<path fill="#232856" d="M135.442-0.562v22.136h12.345v-4.896h-6.74V-0.562H135.442z"/>
			<path fill="#C01718" d="M101.883,16.75h6.173l5.463,7.237h-6.102L101.883,16.75z"/>
			<path fill="#C01718" d="M148.71,16.75h6.173l5.463,7.237h-6.102L148.71,16.75z"/>
		</g>
	</g>
	<path fill="#232856" d="M157.577,2.983c0.071,1.703-1.277,3.122-2.98,3.122c-1.703,0.071-3.122-1.277-3.122-2.98
		s1.277-3.122,2.98-3.122h0.071C156.158-0.068,157.506,1.28,157.577,2.983C157.577,2.912,157.577,2.983,157.577,2.983z
		 M152.185,2.983c-0.071,1.277,0.993,2.341,2.27,2.412h0.071c1.277,0,2.27-1.064,2.27-2.341V2.983
		c0.071-1.277-0.922-2.341-2.199-2.412c-1.277-0.071-2.341,0.922-2.412,2.199C152.185,2.841,152.185,2.912,152.185,2.983z
		 M154.03,4.543h-0.71v-2.98c0.355-0.071,0.78-0.071,1.135-0.071c0.355,0,0.71,0.071,1.064,0.213
		c0.213,0.142,0.284,0.426,0.284,0.639c0,0.355-0.284,0.639-0.639,0.709v0.071c0.284,0.142,0.497,0.426,0.568,0.709
		c0,0.284,0.071,0.497,0.213,0.78h-0.78c-0.142-0.213-0.213-0.497-0.213-0.709c-0.071-0.355-0.213-0.497-0.639-0.497h-0.355
		L154.03,4.543z M154.03,2.841h0.355c0.355,0,0.71-0.142,0.71-0.426s-0.213-0.426-0.639-0.426c-0.142,0-0.284,0-0.355,0.071v0.78
		H154.03z"/>
</g>
</svg>
